%!PS-Adobe-3.0 EPSF-3.0
%%Creator: (MATLAB, The Mathworks, Inc. Version 9.10.0.1602886 \(R2021a\). Operating System: Windows 10)
%%Title: C:/Users/asus/Desktop/THESIS/codes/wavefront.eps
%%CreationDate: 2023-01-22T17:37:42
%%Pages: (atend)
%%BoundingBox:     0     0   420   315
%%LanguageLevel: 3
%%EndComments
%%BeginProlog
%%BeginResource: procset (Apache XML Graphics Std ProcSet) 1.2 0
%%Version: 1.2 0
%%Copyright: (Copyright 2001-2003,2010 The Apache Software Foundation. License terms: http://www.apache.org/licenses/LICENSE-2.0)
/bd{bind def}bind def
/ld{load def}bd
/GR/grestore ld
/GS/gsave ld
/RM/rmoveto ld
/C/curveto ld
/t/show ld
/L/lineto ld
/ML/setmiterlimit ld
/CT/concat ld
/f/fill ld
/N/newpath ld
/S/stroke ld
/CC/setcmykcolor ld
/A/ashow ld
/cp/closepath ld
/RC/setrgbcolor ld
/LJ/setlinejoin ld
/GC/setgray ld
/LW/setlinewidth ld
/M/moveto ld
/re {4 2 roll M
1 index 0 rlineto
0 exch rlineto
neg 0 rlineto
cp } bd
/_ctm matrix def
/_tm matrix def
/BT { _ctm currentmatrix pop matrix _tm copy pop 0 0 moveto } bd
/ET { _ctm setmatrix } bd
/iTm { _ctm setmatrix _tm concat } bd
/Tm { _tm astore pop iTm 0 0 moveto } bd
/ux 0.0 def
/uy 0.0 def
/F {
  /Tp exch def
  /Tf exch def
  Tf findfont Tp scalefont setfont
  /cf Tf def  /cs Tp def
} bd
/ULS {currentpoint /uy exch def /ux exch def} bd
/ULE {
  /Tcx currentpoint pop def
  gsave
  newpath
  cf findfont cs scalefont dup
  /FontMatrix get 0 get /Ts exch def /FontInfo get dup
  /UnderlinePosition get Ts mul /To exch def
  /UnderlineThickness get Ts mul /Tt exch def
  ux uy To add moveto  Tcx uy To add lineto
  Tt setlinewidth stroke
  grestore
} bd
/OLE {
  /Tcx currentpoint pop def
  gsave
  newpath
  cf findfont cs scalefont dup
  /FontMatrix get 0 get /Ts exch def /FontInfo get dup
  /UnderlinePosition get Ts mul /To exch def
  /UnderlineThickness get Ts mul /Tt exch def
  ux uy To add cs add moveto Tcx uy To add cs add lineto
  Tt setlinewidth stroke
  grestore
} bd
/SOE {
  /Tcx currentpoint pop def
  gsave
  newpath
  cf findfont cs scalefont dup
  /FontMatrix get 0 get /Ts exch def /FontInfo get dup
  /UnderlinePosition get Ts mul /To exch def
  /UnderlineThickness get Ts mul /Tt exch def
  ux uy To add cs 10 mul 26 idiv add moveto Tcx uy To add cs 10 mul 26 idiv add lineto
  Tt setlinewidth stroke
  grestore
} bd
/QT {
/Y22 exch store
/X22 exch store
/Y21 exch store
/X21 exch store
currentpoint
/Y21 load 2 mul add 3 div exch
/X21 load 2 mul add 3 div exch
/X21 load 2 mul /X22 load add 3 div
/Y21 load 2 mul /Y22 load add 3 div
/X22 load /Y22 load curveto
} bd
/SSPD {
dup length /d exch dict def
{
/v exch def
/k exch def
currentpagedevice k known {
/cpdv currentpagedevice k get def
v cpdv ne {
/upd false def
/nullv v type /nulltype eq def
/nullcpdv cpdv type /nulltype eq def
nullv nullcpdv or
{
/upd true def
} {
/sametype v type cpdv type eq def
sametype {
v type /arraytype eq {
/vlen v length def
/cpdvlen cpdv length def
vlen cpdvlen eq {
0 1 vlen 1 sub {
/i exch def
/obj v i get def
/cpdobj cpdv i get def
obj cpdobj ne {
/upd true def
exit
} if
} for
} {
/upd true def
} ifelse
} {
v type /dicttype eq {
v {
/dv exch def
/dk exch def
/cpddv cpdv dk get def
dv cpddv ne {
/upd true def
exit
} if
} forall
} {
/upd true def
} ifelse
} ifelse
} if
} ifelse
upd true eq {
d k v put
} if
} if
} if
} forall
d length 0 gt {
d setpagedevice
} if
} bd
/RE { % /NewFontName [NewEncodingArray] /FontName RE -
  findfont dup length dict begin
  {
    1 index /FID ne
    {def} {pop pop} ifelse
  } forall
  /Encoding exch def
  /FontName 1 index def
  currentdict definefont pop
  end
} bind def
%%EndResource
%%BeginResource: procset (Apache XML Graphics EPS ProcSet) 1.0 0
%%Version: 1.0 0
%%Copyright: (Copyright 2002-2003 The Apache Software Foundation. License terms: http://www.apache.org/licenses/LICENSE-2.0)
/BeginEPSF { %def
/b4_Inc_state save def         % Save state for cleanup
/dict_count countdictstack def % Count objects on dict stack
/op_count count 1 sub def      % Count objects on operand stack
userdict begin                 % Push userdict on dict stack
/showpage { } def              % Redefine showpage, { } = null proc
0 setgray 0 setlinecap         % Prepare graphics state
1 setlinewidth 0 setlinejoin
10 setmiterlimit [ ] 0 setdash newpath
/languagelevel where           % If level not equal to 1 then
{pop languagelevel             % set strokeadjust and
1 ne                           % overprint to their defaults.
{false setstrokeadjust false setoverprint
} if
} if
} bd
/EndEPSF { %def
count op_count sub {pop} repeat            % Clean up stacks
countdictstack dict_count sub {end} repeat
b4_Inc_state restore
} bd
%%EndResource
%FOPBeginFontDict
%%IncludeResource: font Courier-Oblique
%%IncludeResource: font Courier-BoldOblique
%%IncludeResource: font Courier-Bold
%%IncludeResource: font ZapfDingbats
%%IncludeResource: font Symbol
%%IncludeResource: font Helvetica
%%IncludeResource: font Helvetica-Oblique
%%IncludeResource: font Helvetica-Bold
%%IncludeResource: font Helvetica-BoldOblique
%%IncludeResource: font Times-Roman
%%IncludeResource: font Times-Italic
%%IncludeResource: font Times-Bold
%%IncludeResource: font Times-BoldItalic
%%IncludeResource: font Courier
%FOPEndFontDict
%%BeginResource: encoding WinAnsiEncoding
/WinAnsiEncoding [
/.notdef /.notdef /.notdef /.notdef /.notdef
/.notdef /.notdef /.notdef /.notdef /.notdef
/.notdef /.notdef /.notdef /.notdef /.notdef
/.notdef /.notdef /.notdef /.notdef /.notdef
/.notdef /.notdef /.notdef /.notdef /.notdef
/.notdef /.notdef /.notdef /.notdef /.notdef
/.notdef /.notdef /space /exclam /quotedbl
/numbersign /dollar /percent /ampersand /quotesingle
/parenleft /parenright /asterisk /plus /comma
/hyphen /period /slash /zero /one
/two /three /four /five /six
/seven /eight /nine /colon /semicolon
/less /equal /greater /question /at
/A /B /C /D /E
/F /G /H /I /J
/K /L /M /N /O
/P /Q /R /S /T
/U /V /W /X /Y
/Z /bracketleft /backslash /bracketright /asciicircum
/underscore /quoteleft /a /b /c
/d /e /f /g /h
/i /j /k /l /m
/n /o /p /q /r
/s /t /u /v /w
/x /y /z /braceleft /bar
/braceright /asciitilde /bullet /Euro /bullet
/quotesinglbase /florin /quotedblbase /ellipsis /dagger
/daggerdbl /circumflex /perthousand /Scaron /guilsinglleft
/OE /bullet /Zcaron /bullet /bullet
/quoteleft /quoteright /quotedblleft /quotedblright /bullet
/endash /emdash /asciitilde /trademark /scaron
/guilsinglright /oe /bullet /zcaron /Ydieresis
/space /exclamdown /cent /sterling /currency
/yen /brokenbar /section /dieresis /copyright
/ordfeminine /guillemotleft /logicalnot /sfthyphen /registered
/macron /degree /plusminus /twosuperior /threesuperior
/acute /mu /paragraph /middot /cedilla
/onesuperior /ordmasculine /guillemotright /onequarter /onehalf
/threequarters /questiondown /Agrave /Aacute /Acircumflex
/Atilde /Adieresis /Aring /AE /Ccedilla
/Egrave /Eacute /Ecircumflex /Edieresis /Igrave
/Iacute /Icircumflex /Idieresis /Eth /Ntilde
/Ograve /Oacute /Ocircumflex /Otilde /Odieresis
/multiply /Oslash /Ugrave /Uacute /Ucircumflex
/Udieresis /Yacute /Thorn /germandbls /agrave
/aacute /acircumflex /atilde /adieresis /aring
/ae /ccedilla /egrave /eacute /ecircumflex
/edieresis /igrave /iacute /icircumflex /idieresis
/eth /ntilde /ograve /oacute /ocircumflex
/otilde /odieresis /divide /oslash /ugrave
/uacute /ucircumflex /udieresis /yacute /thorn
/ydieresis
] def
%%EndResource
%FOPBeginFontReencode
/Courier-Oblique findfont
dup length dict begin
  {1 index /FID ne {def} {pop pop} ifelse} forall
  /Encoding WinAnsiEncoding def
  currentdict
end
/Courier-Oblique exch definefont pop
/Courier-BoldOblique findfont
dup length dict begin
  {1 index /FID ne {def} {pop pop} ifelse} forall
  /Encoding WinAnsiEncoding def
  currentdict
end
/Courier-BoldOblique exch definefont pop
/Courier-Bold findfont
dup length dict begin
  {1 index /FID ne {def} {pop pop} ifelse} forall
  /Encoding WinAnsiEncoding def
  currentdict
end
/Courier-Bold exch definefont pop
/Helvetica findfont
dup length dict begin
  {1 index /FID ne {def} {pop pop} ifelse} forall
  /Encoding WinAnsiEncoding def
  currentdict
end
/Helvetica exch definefont pop
/Helvetica-Oblique findfont
dup length dict begin
  {1 index /FID ne {def} {pop pop} ifelse} forall
  /Encoding WinAnsiEncoding def
  currentdict
end
/Helvetica-Oblique exch definefont pop
/Helvetica-Bold findfont
dup length dict begin
  {1 index /FID ne {def} {pop pop} ifelse} forall
  /Encoding WinAnsiEncoding def
  currentdict
end
/Helvetica-Bold exch definefont pop
/Helvetica-BoldOblique findfont
dup length dict begin
  {1 index /FID ne {def} {pop pop} ifelse} forall
  /Encoding WinAnsiEncoding def
  currentdict
end
/Helvetica-BoldOblique exch definefont pop
/Times-Roman findfont
dup length dict begin
  {1 index /FID ne {def} {pop pop} ifelse} forall
  /Encoding WinAnsiEncoding def
  currentdict
end
/Times-Roman exch definefont pop
/Times-Italic findfont
dup length dict begin
  {1 index /FID ne {def} {pop pop} ifelse} forall
  /Encoding WinAnsiEncoding def
  currentdict
end
/Times-Italic exch definefont pop
/Times-Bold findfont
dup length dict begin
  {1 index /FID ne {def} {pop pop} ifelse} forall
  /Encoding WinAnsiEncoding def
  currentdict
end
/Times-Bold exch definefont pop
/Times-BoldItalic findfont
dup length dict begin
  {1 index /FID ne {def} {pop pop} ifelse} forall
  /Encoding WinAnsiEncoding def
  currentdict
end
/Times-BoldItalic exch definefont pop
/Courier findfont
dup length dict begin
  {1 index /FID ne {def} {pop pop} ifelse} forall
  /Encoding WinAnsiEncoding def
  currentdict
end
/Courier exch definefont pop
%FOPEndFontReencode
%%EndProlog
%%Page: 1 1
%%PageBoundingBox: 0 0 420 315
%%BeginPageSetup
[1 0 0 -1 0 315] CT
%%EndPageSetup
GS
[0.75 0 0 0.75 0 0] CT
1 GC
N
0 0 560 420 re
f
GR
GS
[0.75 0 0 0.75 0 0] CT
1 GC
N
0 0 560 420 re
f
GR
GS
[0.75 0 0 0.75 65.6 103.64063] CT
/Helvetica 18.667 F
GS
[1 0 0 1 0 0] CT
0 7 moveto 
1 -1 scale
(Wave 1) t 
GR
GR
GS
[0.75 0 0 0.75 0 0] CT
0.498 GC
[10 6] 0 setdash
2 LJ
1.333 LW
N
73 307.8 M
74.451 311.521 L
75.903 315.439 L
77.355 319.515 L
78.806 323.707 L
80.258 327.974 L
81.709 332.273 L
83.161 336.561 L
84.612 340.793 L
86.064 344.929 L
87.515 348.925 L
88.967 352.743 L
90.418 356.343 L
91.87 359.689 L
93.321 362.748 L
94.773 365.489 L
96.224 367.885 L
97.676 369.91 L
99.127 371.546 L
100.579 372.775 L
102.03 373.585 L
103.482 373.967 L
104.933 373.919 L
106.385 373.441 L
107.836 372.537 L
109.288 371.216 L
110.739 369.492 L
112.191 367.382 L
113.642 364.908 L
115.094 362.093 L
116.545 358.968 L
117.997 355.562 L
119.448 351.91 L
120.9 348.049 L
122.351 344.018 L
123.803 339.858 L
125.254 335.609 L
126.706 331.315 L
128.157 327.02 L
129.609 322.766 L
131.06 318.595 L
132.512 314.551 L
133.963 310.674 L
135.415 307.002 L
136.866 303.573 L
138.318 300.421 L
139.769 297.578 L
141.221 295.072 L
142.672 292.929 L
144.124 291.17 L
145.575 289.814 L
147.027 288.872 L
148.478 288.356 L
149.93 288.269 L
151.381 288.614 L
152.833 289.387 L
154.284 290.579 L
155.736 292.179 L
157.187 294.171 L
158.639 296.534 L
160.09 299.246 L
161.542 302.278 L
162.993 305.6 L
164.445 309.179 L
165.896 312.979 L
167.348 316.961 L
168.799 321.086 L
170.251 325.312 L
171.702 329.596 L
173.154 333.896 L
174.605 338.167 L
176.057 342.368 L
177.508 346.456 L
178.96 350.39 L
180.411 354.13 L
181.863 357.638 L
183.314 360.88 L
184.766 363.822 L
186.217 366.436 L
187.669 368.694 L
189.12 370.574 L
190.572 372.058 L
192.023 373.13 L
193.475 373.78 L
194.926 374 L
196.378 373.789 L
197.829 373.149 L
199.281 372.086 L
200.732 370.612 L
202.184 368.74 L
203.635 366.49 L
205.087 363.884 L
206.538 360.948 L
207.99 357.713 L
209.441 354.21 L
210.893 350.475 L
212.344 346.545 L
213.796 342.46 L
215.247 338.261 L
216.699 333.991 L
218.15 329.691 L
219.602 325.406 L
221.054 321.179 L
222.505 317.051 L
223.957 313.065 L
225.408 309.261 L
226.86 305.677 L
228.311 302.349 L
229.763 299.31 L
231.214 296.591 L
232.666 294.219 L
234.117 292.219 L
235.569 290.61 L
237.02 289.409 L
238.472 288.627 L
239.923 288.272 L
241.375 288.349 L
242.826 288.856 L
244.278 289.788 L
245.729 291.136 L
247.181 292.886 L
248.632 295.021 L
250.084 297.519 L
251.535 300.355 L
252.987 303.5 L
254.438 306.923 L
255.89 310.59 L
257.341 314.464 L
258.793 318.504 L
260.244 322.672 L
261.696 326.925 L
263.147 331.22 L
264.599 335.514 L
266.05 339.764 L
267.502 343.927 L
268.953 347.962 L
270.405 351.827 L
271.856 355.483 L
273.308 358.895 L
274.759 362.028 L
276.211 364.849 L
277.662 367.331 L
279.114 369.45 L
280.565 371.182 L
282.017 372.512 L
283.468 373.425 L
284.92 373.913 L
286.371 373.971 L
287.823 373.598 L
289.274 372.797 L
290.726 371.577 L
292.177 369.951 L
293.629 367.933 L
295.08 365.546 L
296.532 362.812 L
297.983 359.76 L
299.435 356.42 L
300.886 352.825 L
302.338 349.012 L
303.789 345.019 L
305.241 340.886 L
306.692 336.655 L
308.144 332.368 L
309.595 328.069 L
311.047 323.801 L
312.498 319.606 L
313.95 315.528 L
315.401 311.606 L
316.853 307.88 L
318.304 304.388 L
319.756 301.165 L
321.207 298.244 L
322.659 295.653 L
324.11 293.419 L
325.562 291.565 L
327.013 290.108 L
328.465 289.064 L
329.916 288.442 L
331.368 288.251 L
332.819 288.49 L
334.271 289.158 L
335.722 290.249 L
337.174 291.75 L
338.625 293.648 L
340.077 295.923 L
341.528 298.551 L
342.98 301.508 L
344.431 304.762 L
345.883 308.281 L
347.334 312.031 L
348.786 315.972 L
350.237 320.065 L
351.689 324.27 L
353.14 328.544 L
354.592 332.844 L
356.043 337.127 L
357.495 341.349 L
358.947 345.468 L
360.398 349.443 L
361.85 353.234 L
363.301 356.802 L
364.753 360.112 L
366.204 363.131 L
367.656 365.828 L
369.107 368.175 L
370.559 370.15 L
372.01 371.732 L
373.462 372.906 L
374.913 373.66 L
376.365 373.986 L
377.816 373.881 L
379.268 373.345 L
380.719 372.385 L
382.171 371.01 L
383.622 369.234 L
385.074 367.074 L
386.525 364.553 L
387.977 361.696 L
389.428 358.531 L
390.88 355.09 L
392.331 351.409 L
393.783 347.523 L
395.234 343.472 L
396.686 339.298 L
398.137 335.041 L
399.589 330.744 L
401.04 326.452 L
402.492 322.206 L
403.943 318.05 L
405.395 314.026 L
406.846 310.174 L
408.298 306.532 L
409.749 303.138 L
411.201 300.025 L
412.652 297.225 L
414.104 294.766 L
415.555 292.673 L
417.007 290.967 L
418.458 289.664 L
419.91 288.779 L
421.361 288.319 L
422.813 288.29 L
424.264 288.692 L
425.716 289.521 L
427.167 290.768 L
428.619 292.421 L
430.07 294.464 L
431.522 296.875 L
432.973 299.631 L
434.425 302.703 L
435.876 306.062 L
437.328 309.672 L
438.779 313.498 L
440.231 317.502 L
441.682 321.642 L
443.134 325.878 L
444.585 330.167 L
446.037 334.465 L
447.488 338.73 L
448.94 342.918 L
450.391 346.988 L
451.843 350.898 L
453.294 354.609 L
454.746 358.084 L
456.197 361.288 L
457.649 364.189 L
459.1 366.756 L
460.552 368.966 L
462.003 370.795 L
463.455 372.224 L
464.906 373.241 L
466.358 373.834 L
467.809 373.997 L
469.261 373.729 L
470.712 373.032 L
472.164 371.914 L
473.615 370.386 L
475.067 368.462 L
476.518 366.164 L
477.97 363.512 L
479.421 360.535 L
480.873 357.262 L
482.324 353.727 L
483.776 349.963 L
485.227 346.011 L
486.679 341.908 L
488.13 337.698 L
489.582 333.421 L
491.033 329.121 L
492.485 324.841 L
493.936 320.624 L
495.388 316.513 L
496.839 312.549 L
498.291 308.772 L
499.742 305.22 L
501.194 301.928 L
502.646 298.93 L
504.097 296.255 L
505.548 293.932 L
507 291.982 L
S
GR
GS
[0.75 0 0 0.75 65.6 135.79688] CT
/Helvetica 18.667 F
GS
[1 0 0 1 0 0] CT
0 7 moveto 
1 -1 scale
(Wave 2) t 
GR
GR
GS
[0.75 0 0 0.75 0 0] CT
0.498 GC
[10 6] 0 setdash
2 LJ
1.333 LW
N
73 264.925 M
74.451 268.646 L
75.903 272.564 L
77.355 276.64 L
78.806 280.832 L
80.258 285.099 L
81.709 289.398 L
83.161 293.686 L
84.612 297.918 L
86.064 302.054 L
87.515 306.05 L
88.967 309.868 L
90.418 313.468 L
91.87 316.814 L
93.321 319.873 L
94.773 322.614 L
96.224 325.01 L
97.676 327.035 L
99.127 328.671 L
100.579 329.9 L
102.03 330.71 L
103.482 331.092 L
104.933 331.044 L
106.385 330.566 L
107.836 329.662 L
109.288 328.341 L
110.739 326.617 L
112.191 324.507 L
113.642 322.033 L
115.094 319.218 L
116.545 316.093 L
117.997 312.687 L
119.448 309.035 L
120.9 305.174 L
122.351 301.143 L
123.803 296.983 L
125.254 292.734 L
126.706 288.44 L
128.157 284.145 L
129.609 279.891 L
131.06 275.72 L
132.512 271.676 L
133.963 267.799 L
135.415 264.127 L
136.866 260.698 L
138.318 257.546 L
139.769 254.703 L
141.221 252.197 L
142.672 250.054 L
144.124 248.295 L
145.575 246.939 L
147.027 245.997 L
148.478 245.481 L
149.93 245.394 L
151.381 245.739 L
152.833 246.512 L
154.284 247.704 L
155.736 249.304 L
157.187 251.296 L
158.639 253.659 L
160.09 256.371 L
161.542 259.403 L
162.993 262.725 L
164.445 266.304 L
165.896 270.104 L
167.348 274.086 L
168.799 278.211 L
170.251 282.437 L
171.702 286.721 L
173.154 291.021 L
174.605 295.292 L
176.057 299.493 L
177.508 303.581 L
178.96 307.515 L
180.411 311.255 L
181.863 314.763 L
183.314 318.005 L
184.766 320.947 L
186.217 323.561 L
187.669 325.819 L
189.12 327.699 L
190.572 329.183 L
192.023 330.255 L
193.475 330.905 L
194.926 331.125 L
196.378 330.914 L
197.829 330.274 L
199.281 329.211 L
200.732 327.737 L
202.184 325.865 L
203.635 323.615 L
205.087 321.009 L
206.538 318.073 L
207.99 314.838 L
209.441 311.335 L
210.893 307.6 L
212.344 303.67 L
213.796 299.585 L
215.247 295.386 L
216.699 291.116 L
218.15 286.816 L
219.602 282.531 L
221.054 278.304 L
222.505 274.176 L
223.957 270.19 L
225.408 266.386 L
226.86 262.802 L
228.311 259.474 L
229.763 256.435 L
231.214 253.716 L
232.666 251.344 L
234.117 249.344 L
235.569 247.735 L
237.02 246.534 L
238.472 245.752 L
239.923 245.397 L
241.375 245.474 L
242.826 245.981 L
244.278 246.913 L
245.729 248.261 L
247.181 250.011 L
248.632 252.146 L
250.084 254.644 L
251.535 257.48 L
252.987 260.625 L
254.438 264.048 L
255.89 267.715 L
257.341 271.589 L
258.793 275.629 L
260.244 279.797 L
261.696 284.05 L
263.147 288.345 L
264.599 292.639 L
266.05 296.889 L
267.502 301.052 L
268.953 305.087 L
270.405 308.952 L
271.856 312.608 L
273.308 316.02 L
274.759 319.153 L
276.211 321.974 L
277.662 324.456 L
279.114 326.575 L
280.565 328.307 L
282.017 329.637 L
283.468 330.55 L
284.92 331.038 L
286.371 331.096 L
287.823 330.723 L
289.274 329.922 L
290.726 328.702 L
292.177 327.076 L
293.629 325.058 L
295.08 322.671 L
296.532 319.937 L
297.983 316.885 L
299.435 313.545 L
300.886 309.95 L
302.338 306.137 L
303.789 302.144 L
305.241 298.011 L
306.692 293.78 L
308.144 289.493 L
309.595 285.194 L
311.047 280.926 L
312.498 276.731 L
313.95 272.653 L
315.401 268.731 L
316.853 265.005 L
318.304 261.513 L
319.756 258.29 L
321.207 255.369 L
322.659 252.778 L
324.11 250.544 L
325.562 248.69 L
327.013 247.233 L
328.465 246.189 L
329.916 245.567 L
331.368 245.376 L
332.819 245.615 L
334.271 246.283 L
335.722 247.374 L
337.174 248.875 L
338.625 250.773 L
340.077 253.048 L
341.528 255.676 L
342.98 258.633 L
344.431 261.887 L
345.883 265.406 L
347.334 269.156 L
348.786 273.097 L
350.237 277.19 L
351.689 281.395 L
353.14 285.669 L
354.592 289.969 L
356.043 294.252 L
357.495 298.474 L
358.947 302.593 L
360.398 306.568 L
361.85 310.359 L
363.301 313.927 L
364.753 317.237 L
366.204 320.256 L
367.656 322.953 L
369.107 325.3 L
370.559 327.275 L
372.01 328.857 L
373.462 330.031 L
374.913 330.785 L
376.365 331.111 L
377.816 331.006 L
379.268 330.47 L
380.719 329.51 L
382.171 328.135 L
383.622 326.359 L
385.074 324.199 L
386.525 321.678 L
387.977 318.821 L
389.428 315.656 L
390.88 312.215 L
392.331 308.534 L
393.783 304.648 L
395.234 300.597 L
396.686 296.423 L
398.137 292.166 L
399.589 287.869 L
401.04 283.577 L
402.492 279.331 L
403.943 275.175 L
405.395 271.151 L
406.846 267.299 L
408.298 263.657 L
409.749 260.263 L
411.201 257.15 L
412.652 254.35 L
414.104 251.891 L
415.555 249.798 L
417.007 248.092 L
418.458 246.789 L
419.91 245.904 L
421.361 245.444 L
422.813 245.415 L
424.264 245.817 L
425.716 246.646 L
427.167 247.893 L
428.619 249.546 L
430.07 251.589 L
431.522 254 L
432.973 256.756 L
434.425 259.828 L
435.876 263.187 L
437.328 266.797 L
438.779 270.623 L
440.231 274.627 L
441.682 278.767 L
443.134 283.003 L
444.585 287.292 L
446.037 291.59 L
447.488 295.855 L
448.94 300.043 L
450.391 304.113 L
451.843 308.023 L
453.294 311.734 L
454.746 315.209 L
456.197 318.413 L
457.649 321.314 L
459.1 323.881 L
460.552 326.091 L
462.003 327.92 L
463.455 329.349 L
464.906 330.366 L
466.358 330.959 L
467.809 331.122 L
469.261 330.854 L
470.712 330.157 L
472.164 329.039 L
473.615 327.511 L
475.067 325.587 L
476.518 323.289 L
477.97 320.637 L
479.421 317.66 L
480.873 314.387 L
482.324 310.852 L
483.776 307.088 L
485.227 303.136 L
486.679 299.033 L
488.13 294.823 L
489.582 290.546 L
491.033 286.246 L
492.485 281.966 L
493.936 277.749 L
495.388 273.638 L
496.839 269.674 L
498.291 265.897 L
499.742 262.345 L
501.194 259.053 L
502.646 256.055 L
504.097 253.38 L
505.548 251.057 L
507 249.107 L
S
GR
GS
[0.75 0 0 0.75 65.6 167.95313] CT
/Helvetica 18.667 F
GS
[1 0 0 1 0 0] CT
0 7 moveto 
1 -1 scale
(Wave 3) t 
GR
GR
GS
[0.75 0 0 0.75 0 0] CT
0.498 GC
[10 6] 0 setdash
2 LJ
1.333 LW
N
73 222.05 M
74.451 225.771 L
75.903 229.689 L
77.355 233.765 L
78.806 237.957 L
80.258 242.224 L
81.709 246.523 L
83.161 250.811 L
84.612 255.043 L
86.064 259.179 L
87.515 263.175 L
88.967 266.993 L
90.418 270.593 L
91.87 273.939 L
93.321 276.998 L
94.773 279.739 L
96.224 282.135 L
97.676 284.16 L
99.127 285.796 L
100.579 287.025 L
102.03 287.835 L
103.482 288.217 L
104.933 288.169 L
106.385 287.691 L
107.836 286.787 L
109.288 285.466 L
110.739 283.742 L
112.191 281.632 L
113.642 279.158 L
115.094 276.343 L
116.545 273.218 L
117.997 269.812 L
119.448 266.16 L
120.9 262.299 L
122.351 258.268 L
123.803 254.108 L
125.254 249.859 L
126.706 245.565 L
128.157 241.27 L
129.609 237.016 L
131.06 232.845 L
132.512 228.801 L
133.963 224.924 L
135.415 221.252 L
136.866 217.823 L
138.318 214.671 L
139.769 211.828 L
141.221 209.322 L
142.672 207.179 L
144.124 205.42 L
145.575 204.064 L
147.027 203.122 L
148.478 202.606 L
149.93 202.519 L
151.381 202.864 L
152.833 203.637 L
154.284 204.829 L
155.736 206.429 L
157.187 208.421 L
158.639 210.784 L
160.09 213.496 L
161.542 216.528 L
162.993 219.85 L
164.445 223.429 L
165.896 227.229 L
167.348 231.211 L
168.799 235.336 L
170.251 239.562 L
171.702 243.846 L
173.154 248.146 L
174.605 252.417 L
176.057 256.618 L
177.508 260.706 L
178.96 264.64 L
180.411 268.38 L
181.863 271.888 L
183.314 275.13 L
184.766 278.072 L
186.217 280.686 L
187.669 282.944 L
189.12 284.824 L
190.572 286.308 L
192.023 287.38 L
193.475 288.03 L
194.926 288.25 L
196.378 288.039 L
197.829 287.399 L
199.281 286.336 L
200.732 284.862 L
202.184 282.99 L
203.635 280.74 L
205.087 278.134 L
206.538 275.198 L
207.99 271.963 L
209.441 268.46 L
210.893 264.725 L
212.344 260.795 L
213.796 256.71 L
215.247 252.511 L
216.699 248.241 L
218.15 243.941 L
219.602 239.656 L
221.054 235.429 L
222.505 231.301 L
223.957 227.315 L
225.408 223.511 L
226.86 219.927 L
228.311 216.599 L
229.763 213.56 L
231.214 210.841 L
232.666 208.469 L
234.117 206.469 L
235.569 204.86 L
237.02 203.659 L
238.472 202.877 L
239.923 202.522 L
241.375 202.599 L
242.826 203.106 L
244.278 204.038 L
245.729 205.386 L
247.181 207.136 L
248.632 209.271 L
250.084 211.769 L
251.535 214.605 L
252.987 217.75 L
254.438 221.173 L
255.89 224.84 L
257.341 228.714 L
258.793 232.754 L
260.244 236.922 L
261.696 241.175 L
263.147 245.47 L
264.599 249.764 L
266.05 254.014 L
267.502 258.177 L
268.953 262.212 L
270.405 266.077 L
271.856 269.733 L
273.308 273.145 L
274.759 276.278 L
276.211 279.099 L
277.662 281.581 L
279.114 283.7 L
280.565 285.432 L
282.017 286.762 L
283.468 287.675 L
284.92 288.163 L
286.371 288.221 L
287.823 287.848 L
289.274 287.047 L
290.726 285.827 L
292.177 284.201 L
293.629 282.183 L
295.08 279.796 L
296.532 277.062 L
297.983 274.01 L
299.435 270.67 L
300.886 267.075 L
302.338 263.262 L
303.789 259.269 L
305.241 255.136 L
306.692 250.905 L
308.144 246.618 L
309.595 242.319 L
311.047 238.051 L
312.498 233.856 L
313.95 229.778 L
315.401 225.856 L
316.853 222.13 L
318.304 218.638 L
319.756 215.415 L
321.207 212.494 L
322.659 209.903 L
324.11 207.669 L
325.562 205.815 L
327.013 204.358 L
328.465 203.314 L
329.916 202.692 L
331.368 202.501 L
332.819 202.74 L
334.271 203.408 L
335.722 204.499 L
337.174 206 L
338.625 207.898 L
340.077 210.173 L
341.528 212.801 L
342.98 215.758 L
344.431 219.012 L
345.883 222.531 L
347.334 226.281 L
348.786 230.222 L
350.237 234.315 L
351.689 238.52 L
353.14 242.794 L
354.592 247.094 L
356.043 251.377 L
357.495 255.599 L
358.947 259.718 L
360.398 263.693 L
361.85 267.484 L
363.301 271.052 L
364.753 274.362 L
366.204 277.381 L
367.656 280.078 L
369.107 282.425 L
370.559 284.4 L
372.01 285.982 L
373.462 287.156 L
374.913 287.91 L
376.365 288.236 L
377.816 288.131 L
379.268 287.595 L
380.719 286.635 L
382.171 285.26 L
383.622 283.484 L
385.074 281.324 L
386.525 278.803 L
387.977 275.946 L
389.428 272.781 L
390.88 269.34 L
392.331 265.659 L
393.783 261.773 L
395.234 257.722 L
396.686 253.548 L
398.137 249.291 L
399.589 244.994 L
401.04 240.702 L
402.492 236.456 L
403.943 232.3 L
405.395 228.276 L
406.846 224.424 L
408.298 220.782 L
409.749 217.388 L
411.201 214.275 L
412.652 211.475 L
414.104 209.016 L
415.555 206.923 L
417.007 205.217 L
418.458 203.914 L
419.91 203.029 L
421.361 202.569 L
422.813 202.54 L
424.264 202.942 L
425.716 203.771 L
427.167 205.018 L
428.619 206.671 L
430.07 208.714 L
431.522 211.125 L
432.973 213.881 L
434.425 216.953 L
435.876 220.312 L
437.328 223.922 L
438.779 227.748 L
440.231 231.752 L
441.682 235.892 L
443.134 240.128 L
444.585 244.417 L
446.037 248.715 L
447.488 252.98 L
448.94 257.168 L
450.391 261.238 L
451.843 265.148 L
453.294 268.859 L
454.746 272.334 L
456.197 275.538 L
457.649 278.439 L
459.1 281.006 L
460.552 283.216 L
462.003 285.045 L
463.455 286.474 L
464.906 287.491 L
466.358 288.084 L
467.809 288.247 L
469.261 287.979 L
470.712 287.282 L
472.164 286.164 L
473.615 284.636 L
475.067 282.712 L
476.518 280.414 L
477.97 277.762 L
479.421 274.785 L
480.873 271.512 L
482.324 267.977 L
483.776 264.213 L
485.227 260.261 L
486.679 256.158 L
488.13 251.948 L
489.582 247.671 L
491.033 243.371 L
492.485 239.091 L
493.936 234.874 L
495.388 230.763 L
496.839 226.799 L
498.291 223.022 L
499.742 219.47 L
501.194 216.178 L
502.646 213.18 L
504.097 210.505 L
505.548 208.182 L
507 206.232 L
S
GR
GS
[0.75 0 0 0.75 65.6 200.10938] CT
/Helvetica 18.667 F
GS
[1 0 0 1 0 0] CT
0 7 moveto 
1 -1 scale
(Wave 4) t 
GR
GR
GS
[0.75 0 0 0.75 0 0] CT
0.498 GC
[10 6] 0 setdash
2 LJ
1.333 LW
N
73 179.175 M
74.451 182.896 L
75.903 186.814 L
77.355 190.89 L
78.806 195.082 L
80.258 199.349 L
81.709 203.648 L
83.161 207.936 L
84.612 212.168 L
86.064 216.304 L
87.515 220.3 L
88.967 224.118 L
90.418 227.718 L
91.87 231.064 L
93.321 234.123 L
94.773 236.864 L
96.224 239.26 L
97.676 241.285 L
99.127 242.921 L
100.579 244.15 L
102.03 244.96 L
103.482 245.342 L
104.933 245.294 L
106.385 244.816 L
107.836 243.912 L
109.288 242.591 L
110.739 240.867 L
112.191 238.757 L
113.642 236.283 L
115.094 233.468 L
116.545 230.343 L
117.997 226.937 L
119.448 223.285 L
120.9 219.424 L
122.351 215.393 L
123.803 211.233 L
125.254 206.984 L
126.706 202.69 L
128.157 198.395 L
129.609 194.141 L
131.06 189.97 L
132.512 185.926 L
133.963 182.049 L
135.415 178.377 L
136.866 174.948 L
138.318 171.796 L
139.769 168.953 L
141.221 166.447 L
142.672 164.304 L
144.124 162.545 L
145.575 161.189 L
147.027 160.247 L
148.478 159.731 L
149.93 159.644 L
151.381 159.989 L
152.833 160.762 L
154.284 161.954 L
155.736 163.554 L
157.187 165.546 L
158.639 167.909 L
160.09 170.621 L
161.542 173.653 L
162.993 176.975 L
164.445 180.554 L
165.896 184.354 L
167.348 188.336 L
168.799 192.461 L
170.251 196.687 L
171.702 200.971 L
173.154 205.271 L
174.605 209.542 L
176.057 213.743 L
177.508 217.831 L
178.96 221.765 L
180.411 225.505 L
181.863 229.013 L
183.314 232.255 L
184.766 235.197 L
186.217 237.811 L
187.669 240.069 L
189.12 241.949 L
190.572 243.433 L
192.023 244.505 L
193.475 245.155 L
194.926 245.375 L
196.378 245.164 L
197.829 244.524 L
199.281 243.461 L
200.732 241.987 L
202.184 240.115 L
203.635 237.865 L
205.087 235.259 L
206.538 232.323 L
207.99 229.088 L
209.441 225.585 L
210.893 221.85 L
212.344 217.92 L
213.796 213.835 L
215.247 209.636 L
216.699 205.366 L
218.15 201.066 L
219.602 196.781 L
221.054 192.554 L
222.505 188.426 L
223.957 184.44 L
225.408 180.636 L
226.86 177.052 L
228.311 173.724 L
229.763 170.685 L
231.214 167.966 L
232.666 165.594 L
234.117 163.594 L
235.569 161.985 L
237.02 160.784 L
238.472 160.002 L
239.923 159.647 L
241.375 159.724 L
242.826 160.231 L
244.278 161.163 L
245.729 162.511 L
247.181 164.261 L
248.632 166.396 L
250.084 168.894 L
251.535 171.73 L
252.987 174.875 L
254.438 178.298 L
255.89 181.965 L
257.341 185.839 L
258.793 189.879 L
260.244 194.047 L
261.696 198.3 L
263.147 202.595 L
264.599 206.889 L
266.05 211.139 L
267.502 215.302 L
268.953 219.337 L
270.405 223.202 L
271.856 226.858 L
273.308 230.27 L
274.759 233.403 L
276.211 236.224 L
277.662 238.706 L
279.114 240.825 L
280.565 242.557 L
282.017 243.887 L
283.468 244.8 L
284.92 245.288 L
286.371 245.346 L
287.823 244.973 L
289.274 244.172 L
290.726 242.952 L
292.177 241.326 L
293.629 239.308 L
295.08 236.921 L
296.532 234.187 L
297.983 231.135 L
299.435 227.795 L
300.886 224.2 L
302.338 220.387 L
303.789 216.394 L
305.241 212.261 L
306.692 208.03 L
308.144 203.743 L
309.595 199.444 L
311.047 195.176 L
312.498 190.981 L
313.95 186.903 L
315.401 182.981 L
316.853 179.255 L
318.304 175.763 L
319.756 172.54 L
321.207 169.619 L
322.659 167.028 L
324.11 164.794 L
325.562 162.94 L
327.013 161.483 L
328.465 160.439 L
329.916 159.817 L
331.368 159.626 L
332.819 159.865 L
334.271 160.533 L
335.722 161.624 L
337.174 163.125 L
338.625 165.023 L
340.077 167.298 L
341.528 169.926 L
342.98 172.883 L
344.431 176.137 L
345.883 179.656 L
347.334 183.406 L
348.786 187.347 L
350.237 191.44 L
351.689 195.645 L
353.14 199.919 L
354.592 204.219 L
356.043 208.502 L
357.495 212.724 L
358.947 216.843 L
360.398 220.818 L
361.85 224.609 L
363.301 228.177 L
364.753 231.487 L
366.204 234.506 L
367.656 237.203 L
369.107 239.55 L
370.559 241.525 L
372.01 243.107 L
373.462 244.281 L
374.913 245.035 L
376.365 245.361 L
377.816 245.256 L
379.268 244.72 L
380.719 243.76 L
382.171 242.385 L
383.622 240.609 L
385.074 238.449 L
386.525 235.928 L
387.977 233.071 L
389.428 229.906 L
390.88 226.465 L
392.331 222.784 L
393.783 218.898 L
395.234 214.847 L
396.686 210.673 L
398.137 206.416 L
399.589 202.119 L
401.04 197.827 L
402.492 193.581 L
403.943 189.425 L
405.395 185.401 L
406.846 181.549 L
408.298 177.907 L
409.749 174.513 L
411.201 171.4 L
412.652 168.6 L
414.104 166.141 L
415.555 164.048 L
417.007 162.342 L
418.458 161.039 L
419.91 160.154 L
421.361 159.694 L
422.813 159.665 L
424.264 160.067 L
425.716 160.896 L
427.167 162.143 L
428.619 163.796 L
430.07 165.839 L
431.522 168.25 L
432.973 171.006 L
434.425 174.078 L
435.876 177.437 L
437.328 181.047 L
438.779 184.873 L
440.231 188.877 L
441.682 193.017 L
443.134 197.253 L
444.585 201.542 L
446.037 205.84 L
447.488 210.105 L
448.94 214.293 L
450.391 218.363 L
451.843 222.273 L
453.294 225.984 L
454.746 229.459 L
456.197 232.663 L
457.649 235.564 L
459.1 238.131 L
460.552 240.341 L
462.003 242.17 L
463.455 243.599 L
464.906 244.616 L
466.358 245.209 L
467.809 245.372 L
469.261 245.104 L
470.712 244.407 L
472.164 243.289 L
473.615 241.761 L
475.067 239.837 L
476.518 237.539 L
477.97 234.887 L
479.421 231.91 L
480.873 228.637 L
482.324 225.101 L
483.776 221.338 L
485.227 217.386 L
486.679 213.283 L
488.13 209.073 L
489.582 204.796 L
491.033 200.496 L
492.485 196.216 L
493.936 191.999 L
495.388 187.888 L
496.839 183.924 L
498.291 180.147 L
499.742 176.595 L
501.194 173.303 L
502.646 170.305 L
504.097 167.63 L
505.548 165.307 L
507 163.357 L
S
GR
GS
[0.75 0 0 0.75 65.6 232.26563] CT
/Helvetica 18.667 F
GS
[1 0 0 1 0 0] CT
0 7 moveto 
1 -1 scale
(Wave 5) t 
GR
GR
GS
[0.75 0 0 0.75 0 0] CT
0.498 GC
[10 6] 0 setdash
2 LJ
1.333 LW
N
73 136.3 M
74.451 140.021 L
75.903 143.939 L
77.355 148.015 L
78.806 152.207 L
80.258 156.474 L
81.709 160.773 L
83.161 165.061 L
84.612 169.293 L
86.064 173.429 L
87.515 177.425 L
88.967 181.243 L
90.418 184.843 L
91.87 188.189 L
93.321 191.248 L
94.773 193.989 L
96.224 196.385 L
97.676 198.41 L
99.127 200.046 L
100.579 201.275 L
102.03 202.085 L
103.482 202.467 L
104.933 202.419 L
106.385 201.941 L
107.836 201.037 L
109.288 199.716 L
110.739 197.992 L
112.191 195.882 L
113.642 193.408 L
115.094 190.593 L
116.545 187.468 L
117.997 184.062 L
119.448 180.41 L
120.9 176.549 L
122.351 172.518 L
123.803 168.358 L
125.254 164.109 L
126.706 159.815 L
128.157 155.52 L
129.609 151.266 L
131.06 147.095 L
132.512 143.051 L
133.963 139.174 L
135.415 135.502 L
136.866 132.073 L
138.318 128.921 L
139.769 126.078 L
141.221 123.572 L
142.672 121.429 L
144.124 119.67 L
145.575 118.314 L
147.027 117.372 L
148.478 116.856 L
149.93 116.769 L
151.381 117.114 L
152.833 117.887 L
154.284 119.079 L
155.736 120.679 L
157.187 122.671 L
158.639 125.034 L
160.09 127.746 L
161.542 130.778 L
162.993 134.1 L
164.445 137.679 L
165.896 141.479 L
167.348 145.461 L
168.799 149.586 L
170.251 153.812 L
171.702 158.096 L
173.154 162.396 L
174.605 166.667 L
176.057 170.868 L
177.508 174.956 L
178.96 178.89 L
180.411 182.63 L
181.863 186.138 L
183.314 189.38 L
184.766 192.322 L
186.217 194.936 L
187.669 197.194 L
189.12 199.074 L
190.572 200.558 L
192.023 201.63 L
193.475 202.28 L
194.926 202.5 L
196.378 202.289 L
197.829 201.649 L
199.281 200.586 L
200.732 199.112 L
202.184 197.24 L
203.635 194.99 L
205.087 192.384 L
206.538 189.448 L
207.99 186.213 L
209.441 182.71 L
210.893 178.975 L
212.344 175.045 L
213.796 170.96 L
215.247 166.761 L
216.699 162.491 L
218.15 158.191 L
219.602 153.906 L
221.054 149.679 L
222.505 145.551 L
223.957 141.565 L
225.408 137.761 L
226.86 134.177 L
228.311 130.849 L
229.763 127.81 L
231.214 125.091 L
232.666 122.719 L
234.117 120.719 L
235.569 119.11 L
237.02 117.909 L
238.472 117.127 L
239.923 116.772 L
241.375 116.849 L
242.826 117.356 L
244.278 118.288 L
245.729 119.636 L
247.181 121.386 L
248.632 123.521 L
250.084 126.019 L
251.535 128.855 L
252.987 132 L
254.438 135.423 L
255.89 139.09 L
257.341 142.964 L
258.793 147.004 L
260.244 151.172 L
261.696 155.425 L
263.147 159.72 L
264.599 164.014 L
266.05 168.264 L
267.502 172.427 L
268.953 176.462 L
270.405 180.327 L
271.856 183.983 L
273.308 187.395 L
274.759 190.528 L
276.211 193.349 L
277.662 195.831 L
279.114 197.95 L
280.565 199.682 L
282.017 201.012 L
283.468 201.925 L
284.92 202.413 L
286.371 202.471 L
287.823 202.098 L
289.274 201.297 L
290.726 200.077 L
292.177 198.451 L
293.629 196.433 L
295.08 194.046 L
296.532 191.312 L
297.983 188.26 L
299.435 184.92 L
300.886 181.325 L
302.338 177.512 L
303.789 173.519 L
305.241 169.386 L
306.692 165.155 L
308.144 160.868 L
309.595 156.569 L
311.047 152.301 L
312.498 148.106 L
313.95 144.028 L
315.401 140.106 L
316.853 136.38 L
318.304 132.888 L
319.756 129.665 L
321.207 126.744 L
322.659 124.153 L
324.11 121.919 L
325.562 120.065 L
327.013 118.608 L
328.465 117.564 L
329.916 116.942 L
331.368 116.751 L
332.819 116.99 L
334.271 117.658 L
335.722 118.749 L
337.174 120.25 L
338.625 122.148 L
340.077 124.423 L
341.528 127.051 L
342.98 130.008 L
344.431 133.262 L
345.883 136.781 L
347.334 140.531 L
348.786 144.472 L
350.237 148.565 L
351.689 152.77 L
353.14 157.044 L
354.592 161.344 L
356.043 165.627 L
357.495 169.849 L
358.947 173.968 L
360.398 177.943 L
361.85 181.734 L
363.301 185.302 L
364.753 188.612 L
366.204 191.631 L
367.656 194.328 L
369.107 196.675 L
370.559 198.65 L
372.01 200.232 L
373.462 201.406 L
374.913 202.16 L
376.365 202.486 L
377.816 202.381 L
379.268 201.845 L
380.719 200.885 L
382.171 199.51 L
383.622 197.734 L
385.074 195.574 L
386.525 193.053 L
387.977 190.196 L
389.428 187.031 L
390.88 183.59 L
392.331 179.909 L
393.783 176.023 L
395.234 171.972 L
396.686 167.798 L
398.137 163.541 L
399.589 159.244 L
401.04 154.952 L
402.492 150.706 L
403.943 146.55 L
405.395 142.526 L
406.846 138.674 L
408.298 135.032 L
409.749 131.638 L
411.201 128.525 L
412.652 125.725 L
414.104 123.266 L
415.555 121.173 L
417.007 119.467 L
418.458 118.164 L
419.91 117.279 L
421.361 116.819 L
422.813 116.79 L
424.264 117.192 L
425.716 118.021 L
427.167 119.268 L
428.619 120.921 L
430.07 122.964 L
431.522 125.375 L
432.973 128.131 L
434.425 131.203 L
435.876 134.562 L
437.328 138.172 L
438.779 141.998 L
440.231 146.002 L
441.682 150.142 L
443.134 154.378 L
444.585 158.667 L
446.037 162.965 L
447.488 167.23 L
448.94 171.418 L
450.391 175.488 L
451.843 179.398 L
453.294 183.109 L
454.746 186.584 L
456.197 189.788 L
457.649 192.689 L
459.1 195.256 L
460.552 197.466 L
462.003 199.295 L
463.455 200.724 L
464.906 201.741 L
466.358 202.334 L
467.809 202.497 L
469.261 202.229 L
470.712 201.532 L
472.164 200.414 L
473.615 198.886 L
475.067 196.962 L
476.518 194.664 L
477.97 192.012 L
479.421 189.035 L
480.873 185.762 L
482.324 182.226 L
483.776 178.463 L
485.227 174.511 L
486.679 170.408 L
488.13 166.198 L
489.582 161.921 L
491.033 157.621 L
492.485 153.341 L
493.936 149.124 L
495.388 145.013 L
496.839 141.049 L
498.291 137.272 L
499.742 133.72 L
501.194 130.428 L
502.646 127.43 L
504.097 124.755 L
505.548 122.432 L
507 120.482 L
S
GR
GS
[0.75 0 0 0.75 0 0] CT
0.498 GC
[10 6] 0 setdash
2 LJ
1.333 LW
N
73 93.425 M
74.451 97.146 L
75.903 101.064 L
77.355 105.14 L
78.806 109.332 L
80.258 113.599 L
81.709 117.898 L
83.161 122.186 L
84.612 126.418 L
86.064 130.554 L
87.515 134.55 L
88.967 138.368 L
90.418 141.968 L
91.87 145.314 L
93.321 148.373 L
94.773 151.114 L
96.224 153.51 L
97.676 155.535 L
99.127 157.171 L
100.579 158.4 L
102.03 159.21 L
103.482 159.592 L
104.933 159.544 L
106.385 159.066 L
107.836 158.162 L
109.288 156.841 L
110.739 155.117 L
112.191 153.007 L
113.642 150.533 L
115.094 147.718 L
116.545 144.593 L
117.997 141.187 L
119.448 137.535 L
120.9 133.674 L
122.351 129.643 L
123.803 125.483 L
125.254 121.234 L
126.706 116.94 L
128.157 112.645 L
129.609 108.391 L
131.06 104.22 L
132.512 100.176 L
133.963 96.299 L
135.415 92.627 L
136.866 89.198 L
138.318 86.046 L
139.769 83.203 L
141.221 80.697 L
142.672 78.554 L
144.124 76.795 L
145.575 75.439 L
147.027 74.497 L
148.478 73.981 L
149.93 73.894 L
151.381 74.239 L
152.833 75.012 L
154.284 76.204 L
155.736 77.804 L
157.187 79.796 L
158.639 82.159 L
160.09 84.871 L
161.542 87.903 L
162.993 91.225 L
164.445 94.804 L
165.896 98.604 L
167.348 102.586 L
168.799 106.711 L
170.251 110.937 L
171.702 115.221 L
173.154 119.521 L
174.605 123.792 L
176.057 127.993 L
177.508 132.081 L
178.96 136.015 L
180.411 139.755 L
181.863 143.263 L
183.314 146.505 L
184.766 149.447 L
186.217 152.061 L
187.669 154.319 L
189.12 156.199 L
190.572 157.683 L
192.023 158.755 L
193.475 159.405 L
194.926 159.625 L
196.378 159.414 L
197.829 158.774 L
199.281 157.711 L
200.732 156.237 L
202.184 154.365 L
203.635 152.115 L
205.087 149.509 L
206.538 146.573 L
207.99 143.338 L
209.441 139.835 L
210.893 136.1 L
212.344 132.17 L
213.796 128.085 L
215.247 123.886 L
216.699 119.616 L
218.15 115.316 L
219.602 111.031 L
221.054 106.804 L
222.505 102.676 L
223.957 98.69 L
225.408 94.886 L
226.86 91.302 L
228.311 87.974 L
229.763 84.935 L
231.214 82.216 L
232.666 79.844 L
234.117 77.844 L
235.569 76.235 L
237.02 75.034 L
238.472 74.252 L
239.923 73.897 L
241.375 73.974 L
242.826 74.481 L
244.278 75.413 L
245.729 76.761 L
247.181 78.511 L
248.632 80.646 L
250.084 83.144 L
251.535 85.98 L
252.987 89.125 L
254.438 92.549 L
255.89 96.215 L
257.341 100.089 L
258.793 104.129 L
260.244 108.297 L
261.696 112.55 L
263.147 116.845 L
264.599 121.139 L
266.05 125.389 L
267.502 129.552 L
268.953 133.587 L
270.405 137.452 L
271.856 141.108 L
273.308 144.52 L
274.759 147.653 L
276.211 150.474 L
277.662 152.956 L
279.114 155.075 L
280.565 156.807 L
282.017 158.137 L
283.468 159.05 L
284.92 159.538 L
286.371 159.596 L
287.823 159.223 L
289.274 158.422 L
290.726 157.202 L
292.177 155.576 L
293.629 153.558 L
295.08 151.171 L
296.532 148.437 L
297.983 145.385 L
299.435 142.045 L
300.886 138.45 L
302.338 134.637 L
303.789 130.644 L
305.241 126.511 L
306.692 122.28 L
308.144 117.993 L
309.595 113.694 L
311.047 109.426 L
312.498 105.231 L
313.95 101.153 L
315.401 97.231 L
316.853 93.505 L
318.304 90.013 L
319.756 86.79 L
321.207 83.869 L
322.659 81.278 L
324.11 79.044 L
325.562 77.19 L
327.013 75.733 L
328.465 74.689 L
329.916 74.067 L
331.368 73.876 L
332.819 74.115 L
334.271 74.783 L
335.722 75.874 L
337.174 77.375 L
338.625 79.273 L
340.077 81.548 L
341.528 84.176 L
342.98 87.133 L
344.431 90.387 L
345.883 93.906 L
347.334 97.656 L
348.786 101.597 L
350.237 105.69 L
351.689 109.895 L
353.14 114.169 L
354.592 118.469 L
356.043 122.752 L
357.495 126.974 L
358.947 131.093 L
360.398 135.068 L
361.85 138.859 L
363.301 142.427 L
364.753 145.737 L
366.204 148.756 L
367.656 151.453 L
369.107 153.8 L
370.559 155.775 L
372.01 157.357 L
373.462 158.531 L
374.913 159.285 L
376.365 159.611 L
377.816 159.506 L
379.268 158.97 L
380.719 158.01 L
382.171 156.635 L
383.622 154.859 L
385.074 152.699 L
386.525 150.178 L
387.977 147.321 L
389.428 144.156 L
390.88 140.715 L
392.331 137.034 L
393.783 133.148 L
395.234 129.097 L
396.686 124.923 L
398.137 120.666 L
399.589 116.369 L
401.04 112.077 L
402.492 107.831 L
403.943 103.675 L
405.395 99.651 L
406.846 95.799 L
408.298 92.157 L
409.749 88.763 L
411.201 85.65 L
412.652 82.85 L
414.104 80.391 L
415.555 78.298 L
417.007 76.592 L
418.458 75.289 L
419.91 74.404 L
421.361 73.944 L
422.813 73.915 L
424.264 74.317 L
425.716 75.146 L
427.167 76.393 L
428.619 78.046 L
430.07 80.089 L
431.522 82.5 L
432.973 85.256 L
434.425 88.328 L
435.876 91.687 L
437.328 95.297 L
438.779 99.123 L
440.231 103.127 L
441.682 107.267 L
443.134 111.503 L
444.585 115.792 L
446.037 120.09 L
447.488 124.355 L
448.94 128.543 L
450.391 132.613 L
451.843 136.523 L
453.294 140.234 L
454.746 143.709 L
456.197 146.913 L
457.649 149.814 L
459.1 152.381 L
460.552 154.591 L
462.003 156.42 L
463.455 157.849 L
464.906 158.866 L
466.358 159.459 L
467.809 159.622 L
469.261 159.354 L
470.712 158.657 L
472.164 157.539 L
473.615 156.011 L
475.067 154.087 L
476.518 151.789 L
477.97 149.137 L
479.421 146.16 L
480.873 142.887 L
482.324 139.352 L
483.776 135.588 L
485.227 131.636 L
486.679 127.533 L
488.13 123.323 L
489.582 119.046 L
491.033 114.746 L
492.485 110.466 L
493.936 106.249 L
495.388 102.138 L
496.839 98.174 L
498.291 94.397 L
499.742 90.845 L
501.194 87.553 L
502.646 84.555 L
504.097 81.88 L
505.548 79.557 L
507 77.607 L
S
GR
GS
[0.75 0 0 0.75 0 0] CT
0.498 GC
[10 6] 0 setdash
2 LJ
1.333 LW
N
73 50.55 M
74.451 54.271 L
75.903 58.189 L
77.355 62.265 L
78.806 66.457 L
80.258 70.724 L
81.709 75.023 L
83.161 79.311 L
84.612 83.543 L
86.064 87.679 L
87.515 91.675 L
88.967 95.493 L
90.418 99.093 L
91.87 102.439 L
93.321 105.498 L
94.773 108.239 L
96.224 110.635 L
97.676 112.66 L
99.127 114.296 L
100.579 115.525 L
102.03 116.335 L
103.482 116.717 L
104.933 116.669 L
106.385 116.191 L
107.836 115.287 L
109.288 113.966 L
110.739 112.242 L
112.191 110.132 L
113.642 107.658 L
115.094 104.843 L
116.545 101.718 L
117.997 98.312 L
119.448 94.66 L
120.9 90.799 L
122.351 86.768 L
123.803 82.608 L
125.254 78.359 L
126.706 74.065 L
128.157 69.77 L
129.609 65.516 L
131.06 61.345 L
132.512 57.301 L
133.963 53.424 L
135.415 49.752 L
136.866 46.323 L
138.318 43.171 L
139.769 40.328 L
141.221 37.822 L
142.672 35.679 L
144.124 33.92 L
145.575 32.564 L
147.027 31.622 L
148.478 31.106 L
149.93 31.019 L
151.381 31.364 L
152.833 32.137 L
154.284 33.329 L
155.736 34.929 L
157.187 36.921 L
158.639 39.284 L
160.09 41.996 L
161.542 45.028 L
162.993 48.35 L
164.445 51.929 L
165.896 55.729 L
167.348 59.711 L
168.799 63.836 L
170.251 68.062 L
171.702 72.346 L
173.154 76.646 L
174.605 80.917 L
176.057 85.118 L
177.508 89.206 L
178.96 93.14 L
180.411 96.88 L
181.863 100.388 L
183.314 103.63 L
184.766 106.572 L
186.217 109.186 L
187.669 111.444 L
189.12 113.325 L
190.572 114.808 L
192.023 115.88 L
193.475 116.53 L
194.926 116.75 L
196.378 116.539 L
197.829 115.899 L
199.281 114.836 L
200.732 113.362 L
202.184 111.49 L
203.635 109.24 L
205.087 106.634 L
206.538 103.698 L
207.99 100.463 L
209.441 96.96 L
210.893 93.225 L
212.344 89.295 L
213.796 85.21 L
215.247 81.011 L
216.699 76.741 L
218.15 72.441 L
219.602 68.156 L
221.054 63.929 L
222.505 59.801 L
223.957 55.815 L
225.408 52.011 L
226.86 48.427 L
228.311 45.099 L
229.763 42.06 L
231.214 39.341 L
232.666 36.969 L
234.117 34.969 L
235.569 33.36 L
237.02 32.159 L
238.472 31.377 L
239.923 31.022 L
241.375 31.099 L
242.826 31.606 L
244.278 32.538 L
245.729 33.886 L
247.181 35.636 L
248.632 37.771 L
250.084 40.269 L
251.535 43.105 L
252.987 46.25 L
254.438 49.674 L
255.89 53.34 L
257.341 57.214 L
258.793 61.254 L
260.244 65.422 L
261.696 69.675 L
263.147 73.97 L
264.599 78.264 L
266.05 82.514 L
267.502 86.677 L
268.953 90.712 L
270.405 94.577 L
271.856 98.233 L
273.308 101.645 L
274.759 104.778 L
276.211 107.599 L
277.662 110.081 L
279.114 112.2 L
280.565 113.932 L
282.017 115.262 L
283.468 116.175 L
284.92 116.663 L
286.371 116.721 L
287.823 116.348 L
289.274 115.547 L
290.726 114.327 L
292.177 112.701 L
293.629 110.683 L
295.08 108.296 L
296.532 105.562 L
297.983 102.51 L
299.435 99.17 L
300.886 95.575 L
302.338 91.762 L
303.789 87.769 L
305.241 83.636 L
306.692 79.405 L
308.144 75.118 L
309.595 70.819 L
311.047 66.551 L
312.498 62.356 L
313.95 58.278 L
315.401 54.356 L
316.853 50.63 L
318.304 47.138 L
319.756 43.915 L
321.207 40.994 L
322.659 38.403 L
324.11 36.169 L
325.562 34.315 L
327.013 32.858 L
328.465 31.814 L
329.916 31.192 L
331.368 31.001 L
332.819 31.24 L
334.271 31.908 L
335.722 32.999 L
337.174 34.5 L
338.625 36.398 L
340.077 38.673 L
341.528 41.301 L
342.98 44.258 L
344.431 47.512 L
345.883 51.031 L
347.334 54.781 L
348.786 58.722 L
350.237 62.815 L
351.689 67.02 L
353.14 71.294 L
354.592 75.594 L
356.043 79.877 L
357.495 84.099 L
358.947 88.218 L
360.398 92.193 L
361.85 95.984 L
363.301 99.552 L
364.753 102.862 L
366.204 105.881 L
367.656 108.578 L
369.107 110.925 L
370.559 112.9 L
372.01 114.482 L
373.462 115.656 L
374.913 116.41 L
376.365 116.736 L
377.816 116.631 L
379.268 116.095 L
380.719 115.135 L
382.171 113.76 L
383.622 111.984 L
385.074 109.824 L
386.525 107.303 L
387.977 104.446 L
389.428 101.281 L
390.88 97.84 L
392.331 94.159 L
393.783 90.273 L
395.234 86.222 L
396.686 82.048 L
398.137 77.791 L
399.589 73.494 L
401.04 69.202 L
402.492 64.956 L
403.943 60.8 L
405.395 56.776 L
406.846 52.924 L
408.298 49.282 L
409.749 45.888 L
411.201 42.775 L
412.652 39.975 L
414.104 37.516 L
415.555 35.423 L
417.007 33.717 L
418.458 32.414 L
419.91 31.529 L
421.361 31.069 L
422.813 31.04 L
424.264 31.442 L
425.716 32.271 L
427.167 33.518 L
428.619 35.171 L
430.07 37.214 L
431.522 39.625 L
432.973 42.381 L
434.425 45.453 L
435.876 48.812 L
437.328 52.422 L
438.779 56.248 L
440.231 60.252 L
441.682 64.392 L
443.134 68.628 L
444.585 72.917 L
446.037 77.215 L
447.488 81.48 L
448.94 85.668 L
450.391 89.738 L
451.843 93.648 L
453.294 97.359 L
454.746 100.834 L
456.197 104.038 L
457.649 106.939 L
459.1 109.506 L
460.552 111.716 L
462.003 113.545 L
463.455 114.974 L
464.906 115.991 L
466.358 116.584 L
467.809 116.747 L
469.261 116.479 L
470.712 115.782 L
472.164 114.664 L
473.615 113.136 L
475.067 111.212 L
476.518 108.914 L
477.97 106.262 L
479.421 103.285 L
480.873 100.012 L
482.324 96.477 L
483.776 92.713 L
485.227 88.761 L
486.679 84.658 L
488.13 80.448 L
489.582 76.171 L
491.033 71.871 L
492.485 67.591 L
493.936 63.374 L
495.388 59.263 L
496.839 55.299 L
498.291 51.522 L
499.742 47.97 L
501.194 44.678 L
502.646 41.68 L
504.097 39.005 L
505.548 36.682 L
507 34.732 L
S
GR
GS
[0.75 0 0 0.75 0 0] CT
0.298 GC
1 LJ
2.667 LW
N
149.93 374 M
149.93 31 L
S
GR
GS
[0.75 0 0 0.75 0 0] CT
0.298 GC
1 LJ
2.667 LW
N
239.923 374 M
239.923 31 L
S
GR
GS
[0.75 0 0 0.75 0 0] CT
0.298 GC
1 LJ
2.667 LW
N
331.368 374 M
331.368 31 L
S
GR
GS
[0.75 0 0 0.75 0 0] CT
0.298 GC
1 LJ
2.667 LW
N
422.813 374 M
422.813 31 L
S
GR
%%Trailer
%%Pages: 1
%%EOF
